lab7/lab7_exp3p1.csv

#Digilent WaveForms Oscilloscope Acquisition
#Device Name: Discovery2
#Serial Number: SN:210321A18754
#Date Time: 2024-04-21 20:59:01.027
#Sample rate: 116144Hz
#Samples: 8192
#Trigger: Source: Channel 1 Type: Edge Condition: Rising Level: 2.45 V Hyst.: Auto HoldOff: 0 s
#Channel 1: Range: 500 mV/div Offset: -2.2 V Attenuation: 1 X Sample Mode: Average
#Channel 2: Range: 500 mV/div Offset: -1.75 V Attenuation: 1 X Sample Mode: Average
#Wavegen Channel 1: Running
#Mode: Simple
#Type: Square
#Frequency: 100 Hz
#Period: 10 ms
#Amplitude: 250 mV
#Offset: 2.5 V
#Symmetry: 50 %
#Phase: 0 °

Time (s),Channel 1 (V),Channel 2 (V)
0.0198669298459373,2.241657868999995,0.0001176675582377218
0.0198755398459373,2.241321618132339,0.0001176675582377218
0.0198841498459373,2.241657868999995,-0.0002181782764592715
0.01989275984593731,2.241657868999995,-0.000554024111156501
0.01990136984593731,2.241657868999995,-0.0008898699458534942
0.01990997984593731,2.241657868999995,-0.0008898699458534942
0.01991858984593731,2.241321618132339,-0.0005540241111563482
0.01992719984593731,2.241657868999995,-0.001225715780550418
0.01993580984593731,2.241321618132339,-0.001561561615247564
0.0199444198459373,2.241657868999995,-0.001561561615247564
0.0199530298459373,2.241657868999995,-0.001897407449944558
0.0199616398459373,2.241657868999995,-0.001561561615247717
0.01997024984593731,2.241657868999995,-0.002233253284641482
0.01997885984593731,2.241657868999995,-0.001897407449944863
0.01998746984593731,2.241657868999995,-0.002233253284641634
0.01999607984593731,2.24199411986765,-0.00256909911933878
0.02000468984593731,2.637088889362678,-0.0008898699458534942
0.0200132998459373,2.743680414409421,0.006162892582784574
0.0200219098459373,2.744016665277076,0.01724580512778225
0.0200305198459373,2.744016665277076,0.02832871767278518
0.02003912984593731,2.743680414409421,0.03941163021779781
0.02004773984593731,2.744352916144732,0.05015869692810322
0.02005634984593731,2.744016665277076,0.06056991780370713
0.02006495984593731,2.744352916144732,0.07165283034870984
0.02007356984593731,2.744016665277076,0.08206405122431848
0.0200821798459373,2.744352916144732,0.09213942626522997
0.0200907898459373,2.744352916144732,0.1028864929755358
0.0200993998459373,2.744016665277076,0.1126260221817459
0.0201080098459373,2.744016665277076,0.1227013972226572
0.02011661984593731,2.743680414409421,0.1324409264288808
0.02012522984593731,2.744016665277076,0.142180455635091
0.02013383984593731,2.744016665277076,0.1519199848413053
0.02014244984593731,2.744352916144732,0.1613236682128227
0.02015105984593731,2.744016665277076,0.1710631974190373
0.0201596698459373,2.744352916144732,0.1801310349558578
0.0201682798459373,2.743680414409421,0.189534718327371
0.0201768898459373,2.744352916144731,0.1989384016988884
0.02018549984593731,2.743680414409421,0.2076703934010201
0.02019410984593731,2.743680414409421,0.2167382309378406
0.02020271984593731,2.743680414409421,0.2258060684746568
0.02021132984593731,2.744016665277076,0.2342022143420832
0.02021993984593731,2.743680414409421,0.2429342060442066
0.0202285498459373,2.744016665277076,0.2509945060769359
0.0202371598459373,2.743680414409421,0.2600623436137561
0.0202457698459373,2.743680414409421,0.2684584894811787
0.02025437984593731,2.744016665277076,0.2768546353486124
0.02026298984593731,2.744016665277076,0.2849149353813419
0.02027159984593731,2.744016665277076,0.2933110812487645
0.02028020984593731,2.743680414409421,0.3013713812814938
0.02028881984593731,2.744016665277076,0.3090958354795259
0.02029742984593731,2.744016665277076,0.3174919813469521
0.0203060398459373,2.744016665277076,0.3252164355449845
0.0203146498459373,2.744016665277076,0.3326050439083161
0.0203232598459373,2.744016665277076,0.3410011897757421
0.02033186984593731,2.744016665277076,0.3483897981390844
0.02034047984593731,2.744352916144732,0.3561142523371167
0.02034908984593731,2.744016665277076,0.3638387065351454
0.02035769984593731,2.744352916144732,0.3708914690637835
0.02036630984593731,2.744016665277076,0.3786159232618158
0.0203749198459373,2.744352916144732,0.3856686857904539
0.0203835298459373,2.744016665277076,0.3927214483190887
0.0203921398459373,2.744016665277076,0.3997742108477268
0.02040074984593731,2.744016665277076,0.4071628192110684
0.02040935984593731,2.744016665277076,0.4142155817397062
0.02041796984593731,2.744016665277076,0.4205966525989473
0.02042657984593731,2.744016665277076,0.4279852609622823
0.02043518984593731,2.744016665277076,0.4343663318215263
0.0204437998459373,2.743680414409421,0.4414190943501646
0.0204524098459373,2.744016665277076,0.4484718568788026
0.0204610198459373,2.743680414409421,0.4545170819033467
0.0204696298459373,2.744016665277076,0.4608981527625906
0.02047823984593731,2.744016665277076,0.4676150694565375
0.02048684984593731,2.744352916144732,0.4739961403157786
0.02049545984593731,2.744016665277076,0.4807130570097196
0.02050406984593731,2.744352916144732,0.4867582820342666
0.02051267984593731,2.743680414409421,0.4931393528935106
0.0205212898459373,2.744016665277076,0.4991845779180575
0.0205298998459373,2.744016665277076,0.5055656487772986
0.0205385098459373,2.744016665277076,0.5116108738018456
0.02054711984593731,2.744016665277076,0.517320252991701
0.02055572984593731,2.744352916144732,0.5233654780162479
0.02056433984593731,2.744016665277076,0.5290748572060953
0.02057294984593731,2.744352916144732,0.5351200822306421
0.02058155984593731,2.744016665277076,0.541165307255189
0.0205901698459373,2.744352916144732,0.5462029947756448
0.0205987798459373,2.744016665277076,0.5525840656348888
0.0206073898459373,2.744352916144732,0.5576217531553423
0.02061599984593731,2.744016665277076,0.5636669781798939
0.02062460984593731,2.744352916144732,0.5687046657003498
0.02063321984593731,2.744352916144732,0.5740781990555002
0.02064182984593731,2.744016665277076,0.579451732410653
0.02065043984593731,2.744016665277076,0.5848252657658057
0.02065904984593731,2.743680414409421,0.5898629532862616
0.0206676598459373,2.744016665277076,0.5952364866414144
0.0206762698459373,2.744016665277076,0.6002741741618679
0.0206848798459373,2.744352916144732,0.6053118616823238
0.02069348984593731,2.744352916144732,0.6103495492027842
0.02070209984593731,2.744352916144731,0.6157230825579367
0.02071070984593731,2.743680414409421,0.6200890784089963
0.02071931984593731,2.744352916144732,0.6254626117641491
0.02072792984593731,2.744016665277076,0.6298286076152109
0.0207365398459373,2.744352916144732,0.6348662951356667
0.0207451498459373,2.744016665277076,0.6395681368214233
0.0207537598459373,2.744016665277076,0.643934132672485
0.02076236984593731,2.744016665277076,0.648971820192945
0.02077097984593731,2.744352916144732,0.6536736618787037
0.02077958984593731,2.744016665277076,0.6583755035644603
0.02078819984593731,2.744352916144732,0.6627414994155221
0.02079680984593731,2.744352916144732,0.6667716494318867
0.0208054198459373,2.744352916144732,0.6714734911176454
0.0208140298459373,2.744352916144732,0.675839486968707
0.0208226398459373,2.744352916144732,0.6802054828197668
0.0208312498459373,2.744352916144732,0.6845714786708283
0.02083985984593731,2.744016665277076,0.6889374745218941
0.02084846984593731,2.744352916144732,0.6933034703729537
0.02085707984593731,2.744016665277076,0.6973336203893183
0.02086568984593731,2.744016665277076,0.701363770405683
0.02087429984593731,2.744016665277076,0.7053939204220476
0.0208829098459373,2.744016665277076,0.7090882246037151
0.0208915198459373,2.744016665277076,0.7131183746200779
0.0209001298459373,2.744016665277076,0.7171485246364425
0.02090873984593731,2.744352916144732,0.720842828818114
0.02091734984593731,2.744689167012387,0.7248729788344784
0.02092595984593731,2.744016665277076,0.7285672830161443
0.02093456984593731,2.744352916144732,0.7325974330325089
0.02094317984593731,2.744352916144732,0.7362917372141764
0.0209517898459373,2.744016665277076,0.7399860413958441
0.0209603998459373,2.744689167012387,0.7436803455775116
0.0209690098459373,2.743680414409421,0.7470388039244806
0.02097761984593731,2.744689167012387,0.7510689539408483
0.02098622984593731,2.744016665277076,0.7544274122878188
0.02099483984593731,2.744352916144732,0.7577858706347878
0.02100344984593731,2.744016665277076,0.7611443289817583
0.02101205984593731,2.744352916144732,0.7645027873287289
0.02102066984593731,2.744016665277076,0.7681970915103964
0.0210292798459373,2.744352916144732,0.771555549857367
0.0210378898459373,2.744016665277076,0.7749140082043359
0.0210464998459373,2.744016665277076,0.7779366207166096
0.02105510984593731,2.744016665277076,0.7812950790635831
0.02106371984593731,2.744352916144732,0.7849893832452504
0.02107232984593731,2.744352916144732,0.7880119957575225
0.02108093984593731,2.744016665277076,0.791034608269796
0.02108954984593731,2.744352916144732,0.7940572207820694
0.0210981598459373,2.744016665277076,0.7967439874596459
0.0211067698459373,2.744352916144732,0.8004382916413117
0.0211153798459373,2.744016665277076,0.8027892124841917
0.02112398984593731,2.744016665277076,0.8061476708311647
0.02113259984593731,2.744016665277076,0.809170283343438
0.02114120984593731,2.744016665277076,0.8118570500210133
0.02114981984593731,2.744016665277076,0.8152155083679837
0.02115842984593731,2.744016665277076,0.8172305833761661
0.0211670398459373,2.743680414409421,0.8205890417231366
0.0211756498459373,2.744352916144732,0.823275808400713
0.0211842598459373,2.743680414409421,0.8259625750782882
0.0211928698459373,2.744016665277076,0.8286493417558646
0.02120147984593731,2.744016665277076,0.8310002625987464
0.02121008984593731,2.743680414409421,0.8336870292763217
0.02121869984593731,2.744016665277076,0.836373795953898
0.02122730984593731,2.743680414409421,0.8387247167967774
0.02123591984593731,2.744016665277076,0.8414114834743538
0.0212445298459373,2.743680414409421,0.8437624043172332
0.0212531398459373,2.743344163541765,0.8464491709948084
0.0212617498459373,2.744016665277076,0.8488000918376879
0.02127035984593731,2.744352916144732,0.8511510126805696
0.02127896984593731,2.744016665277076,0.853837779358146
0.02128757984593731,2.744016665277076,0.8565245460357211
0.02129618984593731,2.744016665277076,0.8585396210439035
0.02130479984593731,2.744352916144732,0.8608905418867828
0.0213134098459373,2.743680414409421,0.8635773085643593
0.0213220198459373,2.744016665277076,0.8659282294072376
0.0213306298459373,2.744016665277076,0.8676074585807232
0.02133923984593731,2.744352916144731,0.8702942252583015
0.02134784984593731,2.743680414409421,0.8726451461011805
0.02135645984593731,2.743680414409421,0.874324375274665
0.02136506984593731,2.743680414409421,0.8766752961175444
0.02137367984593731,2.744352916144732,0.8790262169604237
0.02138228984593731,2.743680414409421,0.880705446133909
0.0213908998459373,2.744352916144732,0.8827205211420913
0.0213995098459373,2.743680414409421,0.8850714419849696
0.0214081198459373,2.744016665277076,0.8867506711584551
0.02141672984593731,2.744352916144732,0.8891015920013362
0.02142533984593731,2.744352916144732,0.8911166670095183
0.02143394984593731,2.744352916144732,0.8927958961830028
0.02144255984593731,2.744352916144732,0.8951468170258822
0.02145116984593731,2.744352916144732,0.8971618920340645
0.0214597798459373,2.744352916144732,0.8988411212075498
0.0214683898459373,2.744016665277076,0.9008561962157312
0.0214769998459373,2.744016665277076,0.9025354253892166
0.02148560984593731,2.744352916144731,0.9048863462320974
0.02149421984593731,2.743680414409421,0.9062297295708859
0.02150282984593731,2.744016665277076,0.9082448045790672
0.02151143984593731,2.744016665277076,0.9095881879178555
0.02152004984593731,2.744016665277076,0.9112674170913407
0.0215286598459373,2.744352916144732,0.9132824920995231
0.0215372698459373,2.744352916144732,0.9146258754383112
0.0215458798459373,2.744016665277076,0.9169767962811894
0.02155448984593731,2.744689167012387,0.9186560254546763
0.02156309984593731,2.744352916144732,0.9196635629587679
0.02157170984593731,2.744352916144732,0.9216786379669494
0.02158031984593731,2.744016665277076,0.9230220213057375
0.02158892984593731,2.744016665277076,0.9250370963139198
0.02159753984593731,2.744352916144732,0.9263804796527081
0.0216061498459373,2.744016665277076,0.9277238629914963
0.0216147598459373,2.744016665277076,0.9294030921649807
0.0216233698459373,2.743680414409421,0.9307464755037691
0.02163197984593731,2.744016665277076,0.9327615505119528
0.02164058984593731,2.744016665277076,0.9341049338507407
0.02164919984593731,2.744016665277076,0.9351124713548314
0.02165780984593731,2.743680414409421,0.9371275463630138
0.02166641984593731,2.744016665277076,0.9381350838671049
0.0216750298459373,2.743680414409421,0.9394784672058931
0.0216836398459373,2.744352916144731,0.9411576963793776
0.0216922498459373,2.743680414409421,0.9421652338834691
0.02170085984593731,2.744016665277076,0.9435086172222582
0.02170946984593731,2.743680414409421,0.9445161547263495
0.02171807984593731,2.743680414409421,0.9458595380651371
0.02172668984593731,2.744016665277076,0.9472029214039254
0.02173529984593731,2.743680414409421,0.9485463047427135
0.02174390984593731,2.744016665277076,0.9498896880815018
0.0217525198459373,2.744352916144732,0.9508972255855929
0.0217611298459373,2.744352916144732,0.9525764547590774
0.0217697398459373,2.744016665277076,0.9532481464284719
0.02177834984593731,2.744352916144732,0.954927375601958
0.02178695984593731,2.744352916144732,0.9559349131060494
0.02179556984593731,2.744016665277076,0.9572782964448369
0.02180417984593731,2.743680414409421,0.9582858339489281
0.02181278984593731,2.744352916144732,0.9592933714530192
0.0218213998459373,2.743680414409421,0.9599650631224133
0.0218300098459373,2.744352916144731,0.960972600626504
0.0218386198459373,2.743680414409421,0.9623159839652921
0.02184722984593731,2.744016665277076,0.9633235214693842
0.02185583984593731,2.743680414409421,0.9639952131387786
0.02186444984593731,2.744352916144732,0.9653385964775661
0.02187305984593731,2.744016665277076,0.9663461339816573
0.02188166984593731,2.744016665277076,0.9673536714857485
0.0218902798459373,2.744016665277076,0.9683612089898396
0.0218988898459373,2.744016665277076,0.9690329006592338
0.0219074998459373,2.744352916144732,0.9703762839980212
0.02191610984593731,2.744016665277077,0.9710479756674165
0.02192471984593731,2.744689167012387,0.9720555131715076
0.02193332984593731,2.744352916144732,0.9730630506755984
0.02194193984593731,2.745025417880043,0.9740705881796895
0.02195054984593731,2.744352916144732,0.9750781256837807
0.02195915984593731,2.744352916144732,0.9757498173531748
0.0219677698459373,2.744352916144732,0.9767573548572659
0.0219763798459373,2.744689167012387,0.9777648923613567
0.0219849898459373,2.744689167012387,0.978100738196054
0.02199359984593731,2.744689167012387,0.9791082757001457
0.02200220984593731,2.744352916144732,0.9801158132042368
0.02201081984593731,2.744352916144732,0.9807875048736305
0.02201942984593731,2.744689167012387,0.9817950423777217
0.02202803984593731,2.744352916144732,0.9824667340471158
0.0220366498459373,2.744016665277076,0.9834742715512069
0.0220452598459373,2.744352916144732,0.983810117385904
0.0220538698459373,2.744352916144732,0.9848176548899947
0.02206247984593731,2.744352916144732,0.9854893465593894
0.02207108984593731,2.744689167012387,0.9858251923940868
0.02207969984593731,2.744689167012387,0.9868327298981775
0.02208830984593731,2.744352916144732,0.9871685757328745
0.02209691984593731,2.744689167012387,0.9881761132369657
0.02210552984593731,2.745025417880043,0.9888478049063598
0.0221141398459373,2.744689167012387,0.9891836507410569
0.0221227498459373,2.744689167012387,0.9901911882451476
0.0221313598459373,2.744016665277077,0.990527034079845
0.02213996984593731,2.744352916144732,0.9911987257492396
0.02214857984593731,2.744352916144732,0.9922062632533304
0.02215718984593731,2.744352916144732,0.9925421090880274
0.02216579984593731,2.744016665277076,0.9935496465921185
0.02217440984593731,2.744352916144732,0.9935496465921185
0.0221830198459373,2.744352916144732,0.9945571840962097
0.0221916298459373,2.744689167012387,0.9948930299309067
0.0222002398459373,2.744689167012387,0.9952288757656037
0.02220884984593731,2.744352916144732,0.996236413269695
0.02221745984593731,2.744689167012387,0.9965722591043922
0.02222606984593731,2.744352916144732,0.9969081049390891
0.02223467984593731,2.744352916144732,0.9975797966084832
0.02224328984593731,2.744352916144732,0.9979156424431802
0.0222518998459373,2.744352916144732,0.9985873341125743
0.0222605098459373,2.744352916144732,0.9985873341125743
0.0222691198459373,2.744689167012387,0.999594871616665
0.02227772984593731,2.744689167012387,0.9999307174513629
0.02228633984593731,2.744689167012387,1.000602409120757
0.02229494984593731,2.744352916144732,1.000938254955454
0.02230355984593731,2.744689167012387,1.001274100790151
0.02231216984593731,2.744352916144732,1.001609946624848
0.02232077984593731,2.744352916144732,1.001945792459545
0.0223293898459373,2.743680414409421,1.002281638294242
0.0223379998459373,2.744352916144731,1.002281638294242
0.0223466098459373,2.744016665277076,1.002617484128939
0.02235521984593731,2.744352916144732,1.003289175798333
0.02236382984593731,2.744016665277076,1.002953329963636
0.02237243984593731,2.744352916144732,1.003289175798333
0.02238104984593731,2.744016665277076,1.00362502163303
0.02238965984593731,2.744016665277076,1.003960867467727
0.0223982698459373,2.744352916144732,1.003960867467727
0.0224068798459373,2.744016665277076,1.004296713302424
0.0224154898459373,2.744016665277076,1.004296713302424
0.02242409984593731,2.743680414409421,1.004632559137121
0.02243270984593731,2.744352916144732,1.004632559137121
0.02244131984593731,2.744016665277076,1.004968404971818
0.02244992984593731,2.744352916144732,1.005304250806515
0.02245853984593731,2.744016665277076,1.005304250806515
0.02246714984593731,2.744352916144732,1.005304250806515
0.0224757598459373,2.744016665277076,1.005304250806515
0.0224843698459373,2.744352916144732,1.005640096641212
0.0224929798459373,2.744016665277076,1.005640096641212
0.02250158984593731,2.744016665277076,1.00597594247591
0.02251019984593731,2.744016665277076,1.00597594247591
0.02251880984593731,2.744352916144732,1.00597594247591
0.02252741984593731,2.744352916144732,1.006647634145303
0.02253602984593731,2.744352916144732,1.006983479980001
0.0225446398459373,2.744352916144732,1.007319325814698
0.0225532498459373,2.744352916144732,1.007655171649395
0.0225618598459373,2.744352916144732,1.007991017484092
0.02257046984593731,2.744352916144732,1.008326863318789
0.02257907984593731,2.744689167012387,1.008326863318789
0.02258768984593731,2.744016665277076,1.008662709153486
0.02259629984593731,2.744352916144732,1.008998554988183
0.02260490984593731,2.743680414409421,1.00933440082288
0.0226135198459373,2.744352916144732,1.009670246657577
0.0226221298459373,2.744016665277076,1.00933440082288
0.0226307398459373,2.744352916144732,1.010006092492274
0.02263934984593731,2.744016665277076,1.010006092492274
0.02264795984593731,2.744016665277076,1.010006092492274
0.02265656984593731,2.744016665277076,1.010341938326971
0.02266517984593731,2.744352916144732,1.010677784161668
0.02267378984593731,2.744016665277076,1.010677784161668
0.02268239984593731,2.744016665277076,1.011013629996365
0.0226910098459373,2.744016665277076,1.011013629996365
0.0226996198459373,2.744352916144732,1.011013629996365
0.0227082298459373,2.744016665277076,1.011349475831062
0.02271683984593731,2.744016665277076,1.011685321665759
0.02272544984593731,2.744016665277076,1.011349475831062
0.02273405984593731,2.743680414409421,1.012021167500456
0.02274266984593731,2.744016665277076,1.012021167500456
0.02275127984593731,2.744016665277076,1.011685321665759
0.0227598898459373,2.744016665277076,1.012021167500456
0.0227684998459373,2.744016665277076,1.012021167500456
0.0227771098459373,2.744352916144732,1.012357013335153
0.02278571984593731,2.743680414409421,1.012357013335154
0.02279432984593731,2.744352916144732,1.012357013335154
0.02280293984593731,2.744352916144732,1.012692859169851
