lab7/weforgotpower.csv

#Digilent WaveForms Oscilloscope Acquisition
#Device Name: Discovery2
#Serial Number: SN:210321A18754
#Date Time: 2024-04-21 21:35:55.488
#Sample rate: 126904Hz
#Samples: 8192
#Trigger: Source: Channel 1 Type: Edge Condition: Rising Level: 2.51 V Hyst.: Auto HoldOff: 0 s
#Channel 1: Range: 50 mV/div Offset: -2.5 V Attenuation: 1 X Sample Mode: Average
#Channel 2: Range: 50 mV/div Offset: -2.5 V Attenuation: 1 X Sample Mode: Average
#Wavegen Channel 1: Running
#Mode: Simple
#Type: Square
#Frequency: 65 Hz
#Period: 15.3846154 ms
#Amplitude: 50 mV
#Offset: 2.5 V
#Symmetry: 50 %
#Phase: 0 °

Time (s),Channel 1 (V),Channel 2 (V)
-0.04046609546954431,2.54254973705295,2.509308251433224
-0.0404582154695443,2.542213486185294,2.509308251433224
-0.0404503354695443,2.54254973705295,2.509308251433224
-0.0404424554695443,2.542213486185294,2.509308251433224
-0.04043457546954431,2.542213486185294,2.508972405598528
-0.0404266954695443,2.542885987920605,2.509308251433224
-0.0404188154695443,2.54254973705295,2.509308251433224
-0.0404109354695443,2.54254973705295,2.508972405598528
-0.04040305546954431,2.542885987920605,2.509644097267921
-0.0403951754695443,2.542213486185294,2.509644097267921
-0.0403872954695443,2.542213486185294,2.509308251433224
-0.0403794154695443,2.54254973705295,2.509308251433224
-0.04037153546954431,2.54254973705295,2.509644097267921
-0.0403636554695443,2.54254973705295,2.509644097267921
-0.0403557754695443,2.542885987920605,2.509644097267921
-0.0403478954695443,2.541877235317639,2.509644097267921
-0.04034001546954431,2.542549737052949,2.509979943102619
-0.0403321354695443,2.541877235317639,2.509979943102619
-0.0403242554695443,2.54254973705295,2.509644097267921
-0.0403163754695443,2.542213486185294,2.509979943102619
-0.04030849546954431,2.54254973705295,2.509979943102619
-0.0403006154695443,2.54254973705295,2.510315788937316
-0.0402927354695443,2.54254973705295,2.509979943102619
-0.0402848554695443,2.54254973705295,2.509979943102619
-0.04027697546954431,2.54254973705295,2.509979943102619
-0.0402690954695443,2.54254973705295,2.510315788937316
-0.0402612154695443,2.54254973705295,2.510315788937316
-0.0402533354695443,2.54254973705295,2.510315788937316
-0.04024545546954431,2.54254973705295,2.510315788937316
-0.0402375754695443,2.542885987920605,2.510315788937316
-0.0402296954695443,2.54254973705295,2.510651634772012
-0.0402218154695443,2.54254973705295,2.510315788937316
-0.04021393546954431,2.54254973705295,2.510651634772012
-0.0402060554695443,2.54254973705295,2.510315788937316
-0.0401981754695443,2.542885987920605,2.510315788937316
-0.04019029546954431,2.542885987920605,2.510651634772012
-0.04018241546954431,2.54254973705295,2.510651634772012
-0.0401745354695443,2.542213486185294,2.510651634772012
-0.0401666554695443,2.54254973705295,2.510651634772012
-0.04015877546954431,2.542885987920605,2.510315788937316
-0.04015089546954431,2.54254973705295,2.510651634772012
-0.0401430154695443,2.54254973705295,2.510315788937316
-0.0401351354695443,2.542213486185295,2.510315788937316
-0.04012725546954431,2.542885987920604,2.510651634772012
-0.04011937546954431,2.54254973705295,2.510315788937316
-0.0401114954695443,2.542885987920605,2.510315788937316
-0.0401036154695443,2.542213486185294,2.510651634772012
-0.04009573546954431,2.54254973705295,2.510651634772012
-0.0400878554695443,2.542213486185294,2.510651634772012
-0.0400799754695443,2.54254973705295,2.510315788937316
-0.0400720954695443,2.542213486185294,2.510651634772012
-0.04006421546954431,2.54254973705295,2.51098748060671
-0.0400563354695443,2.54254973705295,2.510651634772012
-0.0400484554695443,2.542885987920605,2.510651634772012
-0.0400405754695443,2.54254973705295,2.510651634772012
-0.04003269546954431,2.54254973705295,2.510651634772012
-0.0400248154695443,2.542885987920605,2.510651634772012
-0.0400169354695443,2.54254973705295,2.510651634772012
-0.0400090554695443,2.542213486185294,2.510651634772012
-0.04000117546954431,2.54254973705295,2.510651634772012
-0.0399932954695443,2.54254973705295,2.510651634772012
-0.0399854154695443,2.542885987920605,2.51098748060671
-0.0399775354695443,2.54254973705295,2.51098748060671
-0.03996965546954431,2.542213486185294,2.51098748060671
-0.0399617754695443,2.542213486185294,2.51098748060671
-0.0399538954695443,2.542885987920605,2.51098748060671
-0.0399460154695443,2.54254973705295,2.510651634772012
-0.03993813546954431,2.54254973705295,2.51098748060671
-0.0399302554695443,2.54254973705295,2.51098748060671
-0.0399223754695443,2.54254973705295,2.51098748060671
-0.0399144954695443,2.542885987920605,2.511323326441407
-0.03990661546954431,2.54254973705295,2.51098748060671
-0.0398987354695443,2.54322223878826,2.511323326441407
-0.0398908554695443,2.54254973705295,2.511323326441407
-0.0398829754695443,2.54254973705295,2.51098748060671
-0.03987509546954431,2.542213486185294,2.51098748060671
-0.0398672154695443,2.54254973705295,2.51098748060671
-0.0398593354695443,2.54254973705295,2.511323326441407
-0.03985145546954431,2.54254973705295,2.511323326441407
-0.03984357546954431,2.542213486185294,2.51098748060671
-0.0398356954695443,2.54254973705295,2.511323326441407
-0.0398278154695443,2.542213486185294,2.511323326441407
-0.03981993546954431,2.54254973705295,2.511323326441407
-0.03981205546954431,2.542213486185294,2.511323326441407
-0.0398041754695443,2.54254973705295,2.511323326441407
-0.0397962954695443,2.54254973705295,2.51098748060671
-0.03978841546954431,2.54254973705295,2.511323326441407
-0.03978053546954431,2.54254973705295,2.511323326441407
-0.0397726554695443,2.542885987920605,2.511323326441407
-0.0397647754695443,2.542885987920605,2.511659172276104
-0.03975689546954431,2.54254973705295,2.511323326441407
-0.0397490154695443,2.54254973705295,2.511659172276104
-0.0397411354695443,2.54254973705295,2.511659172276104
-0.0397332554695443,2.54254973705295,2.511323326441407
-0.03972537546954431,2.54254973705295,2.511659172276104
-0.0397174954695443,2.54254973705295,2.511659172276104
-0.0397096154695443,2.541877235317639,2.511659172276104
-0.0397017354695443,2.542885987920604,2.511995018110801
-0.03969385546954431,2.542213486185295,2.511659172276104
-0.0396859754695443,2.54322223878826,2.511995018110801
-0.0396780954695443,2.542213486185294,2.511659172276104
-0.0396702154695443,2.542885987920605,2.511659172276104
-0.03966233546954431,2.542885987920605,2.511659172276104
-0.0396544554695443,2.542885987920605,2.511995018110801
-0.0396465754695443,2.54254973705295,2.511659172276104
-0.0396386954695443,2.542885987920605,2.511659172276104
-0.03963081546954431,2.54254973705295,2.511659172276104
-0.0396229354695443,2.54254973705295,2.511995018110801
-0.0396150554695443,2.54254973705295,2.511995018110801
-0.0396071754695443,2.54254973705295,2.511659172276104
-0.03959929546954431,2.542213486185294,2.512330863945497
-0.0395914154695443,2.54254973705295,2.511995018110801
-0.0395835354695443,2.542885987920605,2.511995018110801
-0.0395756554695443,2.54254973705295,2.512666709780194
-0.03956777546954431,2.54254973705295,2.511995018110802
-0.0395598954695443,2.542885987920605,2.512330863945498
-0.0395520154695443,2.54254973705295,2.511995018110801
-0.0395441354695443,2.54254973705295,2.511995018110801
-0.03953625546954431,2.54254973705295,2.512330863945498
-0.0395283754695443,2.542213486185294,2.512330863945498
-0.0395204954695443,2.542885987920605,2.512330863945498
-0.03951261546954431,2.542885987920605,2.512330863945498
-0.03950473546954431,2.542885987920605,2.512330863945498
-0.0394968554695443,2.54254973705295,2.512666709780195
-0.0394889754695443,2.542885987920604,2.512666709780195
-0.03948109546954431,2.542213486185295,2.512330863945498
-0.03947321546954431,2.542885987920605,2.512666709780195
-0.0394653354695443,2.54254973705295,2.513002555614892
-0.0394574554695443,2.54254973705295,2.512666709780195
-0.03944957546954431,2.542213486185294,2.512666709780195
-0.03944169546954431,2.542213486185294,2.512666709780195
-0.0394338154695443,2.54254973705295,2.513002555614892
-0.0394259354695443,2.542885987920605,2.513002555614892
-0.0394180554695443,2.542885987920605,2.512666709780195
-0.0394101754695443,2.54254973705295,2.513002555614892
-0.0394022954695443,2.542885987920605,2.513002555614892
-0.03939441546954431,2.542885987920605,2.512666709780195
-0.03938653546954431,2.542885987920605,2.513338401449589
-0.0393786554695443,2.54254973705295,2.513002555614892
-0.0393707754695443,2.54254973705295,2.513002555614892
-0.0393628954695443,2.542885987920605,2.513338401449589
-0.0393550154695443,2.54254973705295,2.513002555614892
-0.0393471354695443,2.54254973705295,2.513338401449589
-0.0393392554695443,2.542213486185294,2.513002555614892
-0.03933137546954431,2.54254973705295,2.513002555614892
-0.03932349546954431,2.542885987920605,2.513674247284286
-0.0393156154695443,2.54254973705295,2.513338401449589
-0.0393077354695443,2.542885987920605,2.513338401449589
-0.0392998554695443,2.54254973705295,2.513338401449589
-0.0392919754695443,2.54254973705295,2.513002555614892
-0.0392840954695443,2.54254973705295,2.513338401449589
-0.0392762154695443,2.54254973705295,2.513002555614892
-0.03926833546954431,2.542213486185294,2.513338401449589
-0.03926045546954431,2.54254973705295,2.513674247284286
-0.0392525754695443,2.54254973705295,2.513338401449589
-0.0392446954695443,2.542885987920605,2.513338401449589
-0.0392368154695443,2.541877235317639,2.513674247284286
-0.0392289354695443,2.542885987920605,2.513338401449589
-0.0392210554695443,2.54254973705295,2.513674247284286
-0.0392131754695443,2.542885987920605,2.513674247284286
-0.03920529546954431,2.542885987920605,2.513674247284286
-0.03919741546954431,2.54254973705295,2.513674247284286
-0.0391895354695443,2.542885987920605,2.513674247284286
-0.0391816554695443,2.542885987920605,2.513674247284286
-0.0391737754695443,2.54254973705295,2.514010093118983
-0.03916589546954431,2.54254973705295,2.513674247284286
-0.0391580154695443,2.54254973705295,2.513674247284286
-0.03915013546954431,2.542885987920605,2.514010093118983
-0.03914225546954431,2.542885987920605,2.514010093118983
-0.03913437546954431,2.542885987920605,2.51434593895368
-0.0391264954695443,2.54254973705295,2.514010093118983
-0.0391186154695443,2.54254973705295,2.514010093118983
-0.0391107354695443,2.54322223878826,2.514010093118983
-0.03910285546954431,2.542885987920605,2.514010093118983
-0.0390949754695443,2.542885987920605,2.51434593895368
-0.03908709546954431,2.542885987920605,2.514681784788377
-0.03907921546954431,2.54322223878826,2.514010093118983
-0.0390713354695443,2.542885987920605,2.51434593895368
-0.0390634554695443,2.542885987920605,2.514681784788377
-0.0390555754695443,2.54322223878826,2.51434593895368
-0.0390476954695443,2.54322223878826,2.514681784788377
-0.0390398154695443,2.542885987920605,2.514681784788377
-0.0390319354695443,2.542885987920605,2.51434593895368
-0.03902405546954431,2.54254973705295,2.514681784788377
-0.03901617546954431,2.542885987920605,2.51434593895368
-0.0390082954695443,2.542213486185294,2.514681784788377
-0.0390004154695443,2.542885987920605,2.51434593895368
-0.0389925354695443,2.54254973705295,2.514681784788377
-0.0389846554695443,2.54254973705295,2.515017630623074
-0.0389767754695443,2.542213486185294,2.514681784788377
-0.0389688954695443,2.542213486185294,2.514681784788377
-0.03896101546954431,2.542213486185294,2.514681784788377
-0.03895313546954431,2.542213486185294,2.514681784788377
-0.0389452554695443,2.541877235317639,2.514681784788377
-0.0389373754695443,2.542213486185294,2.515017630623074
-0.0389294954695443,2.54254973705295,2.514681784788377
-0.0389216154695443,2.542213486185294,2.514681784788377
-0.0389137354695443,2.54254973705295,2.514681784788377
-0.0389058554695443,2.542213486185294,2.514681784788377
-0.03889797546954431,2.542213486185294,2.515017630623074
-0.03889009546954431,2.54254973705295,2.514681784788377
-0.0388822154695443,2.54254973705295,2.515017630623074
-0.0388743354695443,2.54254973705295,2.515017630623074
-0.0388664554695443,2.54254973705295,2.515017630623074
-0.0388585754695443,2.54254973705295,2.515017630623074
-0.0388506954695443,2.542885987920605,2.515017630623074
-0.0388428154695443,2.542213486185294,2.514681784788377
-0.03883493546954431,2.54254973705295,2.515017630623074
-0.03882705546954431,2.54254973705295,2.515017630623074
-0.0388191754695443,2.54254973705295,2.515017630623074
-0.0388112954695443,2.54254973705295,2.515017630623074
-0.0388034154695443,2.54254973705295,2.515017630623074
-0.03879553546954431,2.542213486185294,2.515353476457772
-0.0387876554695443,2.542885987920605,2.515353476457772
-0.03877977546954431,2.54254973705295,2.515017630623074
-0.03877189546954431,2.54254973705295,2.515017630623074
-0.03876401546954431,2.54254973705295,2.515353476457772
-0.0387561354695443,2.54254973705295,2.515017630623074
-0.0387482554695443,2.542213486185294,2.515353476457772
-0.0387403754695443,2.54254973705295,2.515017630623075
-0.0387324954695443,2.542885987920605,2.515689322292468
-0.0387246154695443,2.54254973705295,2.515353476457772
-0.03871673546954431,2.54254973705295,2.515353476457772
-0.03870885546954431,2.54254973705295,2.516025168127165
-0.0387009754695443,2.542885987920605,2.515353476457772
-0.0386930954695443,2.54254973705295,2.515353476457772
-0.0386852154695443,2.54254973705295,2.515353476457772
-0.0386773354695443,2.54254973705295,2.515353476457772
-0.0386694554695443,2.54254973705295,2.515689322292468
-0.0386615754695443,2.542213486185294,2.515689322292468
-0.03865369546954431,2.542213486185294,2.515353476457772
-0.03864581546954431,2.541877235317639,2.515689322292468
-0.0386379354695443,2.54254973705295,2.515689322292468
-0.0386300554695443,2.54254973705295,2.516025168127165
-0.0386221754695443,2.542885987920604,2.516025168127165
-0.0386142954695443,2.542213486185294,2.515689322292468
-0.0386064154695443,2.54254973705295,2.516025168127165
-0.0385985354695443,2.54254973705295,2.516025168127165
-0.03859065546954431,2.542885987920605,2.515689322292468
-0.03858277546954431,2.54254973705295,2.516025168127165
-0.0385748954695443,2.54254973705295,2.516025168127165
-0.0385670154695443,2.54254973705295,2.516025168127165
-0.0385591354695443,2.54254973705295,2.516025168127165
-0.0385512554695443,2.542885987920605,2.516025168127165
-0.0385433754695443,2.542885987920605,2.516361013961863
-0.0385354954695443,2.542885987920605,2.516025168127165
-0.03852761546954431,2.542885987920605,2.516025168127165
-0.03851973546954431,2.542885987920605,2.516361013961863
-0.0385118554695443,2.542885987920605,2.516025168127165
-0.0385039754695443,2.542885987920605,2.516361013961863
-0.0384960954695443,2.54254973705295,2.516361013961863
-0.0384882154695443,2.54254973705295,2.516361013961863
-0.0384803354695443,2.54254973705295,2.516361013961863
-0.03847245546954431,2.54254973705295,2.516361013961863
-0.03846457546954431,2.512287158963983,2.516361013961863
-0.03845669546954431,2.442346978491658,2.516361013961863
-0.0384488154695443,2.442010727624002,2.516361013961863
-0.0384409354695443,2.442346978491657,2.516361013961863
-0.0384330554695443,2.441674476756347,2.516696859796559
-0.03842517546954431,2.442346978491658,2.516025168127165
-0.0384172954695443,2.442346978491658,2.516025168127165
-0.03840941546954431,2.442683229359313,2.516025168127165
-0.03840153546954431,2.442346978491658,2.515689322292468
-0.0383936554695443,2.442346978491658,2.515353476457772
-0.0383857754695443,2.442010727624002,2.515353476457772
-0.0383778954695443,2.442346978491658,2.515017630623074
-0.0383700154695443,2.442010727624002,2.514681784788377
-0.0383621354695443,2.442010727624002,2.51434593895368
-0.0383542554695443,2.442346978491658,2.514010093118983
-0.03834637546954431,2.442346978491658,2.513674247284286
-0.03833849546954431,2.442346978491658,2.513002555614892
-0.0383306154695443,2.442346978491658,2.513002555614892
-0.0383227354695443,2.442346978491658,2.512330863945498
-0.0383148554695443,2.442010727624002,2.511995018110801
-0.0383069754695443,2.442010727624002,2.511995018110801
-0.0382990954695443,2.442346978491658,2.511659172276104
-0.0382912154695443,2.442010727624002,2.511323326441407
-0.03828333546954431,2.442010727624002,2.510651634772013
-0.03827545546954431,2.442010727624002,2.510315788937316
-0.0382675754695443,2.442010727624002,2.509644097267921
-0.0382596954695443,2.442346978491658,2.508972405598528
-0.0382518154695443,2.442010727624002,2.50863655976383
-0.0382439354695443,2.442346978491658,2.50863655976383
-0.0382360554695443,2.442010727624002,2.507964868094436
-0.0382281754695443,2.442346978491658,2.507964868094436
-0.03822029546954431,2.442346978491658,2.507629022259739
-0.03821241546954431,2.442683229359313,2.506957330590346
-0.0382045354695443,2.442010727624002,2.506621484755648
-0.0381966554695443,2.442346978491658,2.506285638920951
-0.0381887754695443,2.442010727624002,2.505613947251557
-0.0381808954695443,2.442346978491658,2.505613947251557
-0.0381730154695443,2.442010727624002,2.504942255582163
-0.0381651354695443,2.442010727624002,2.504606409747466
-0.03815725546954431,2.441674476756347,2.504270563912768
-0.03814937546954431,2.442346978491658,2.503934718078072
-0.0381414954695443,2.442010727624002,2.503263026408677
-0.0381336154695443,2.442346978491658,2.503263026408677
-0.0381257354695443,2.442010727624002,2.50292718057398
-0.03811785546954431,2.442010727624002,2.502591334739284
-0.0381099754695443,2.442683229359313,2.501919643069889
-0.03810209546954431,2.442010727624003,2.501583797235192
-0.03809421546954431,2.442683229359312,2.501247951400495
-0.03808633546954431,2.442346978491658,2.500912105565798
-0.0380784554695443,2.442346978491658,2.500576259731101
-0.0380705754695443,2.442683229359313,2.499904568061707
-0.0380626954695443,2.442346978491658,2.49956872222701
-0.0380548154695443,2.442346978491658,2.49956872222701
-0.0380469354695443,2.442010727624002,2.499232876392313
-0.03803905546954431,2.442346978491658,2.498561184722919
-0.03803117546954431,2.442346978491658,2.498225338888222
-0.0380232954695443,2.442010727624002,2.497553647218828
-0.0380154154695443,2.442346978491658,2.497217801384131
-0.0380075354695443,2.442346978491658,2.496881955549433
-0.0379996554695443,2.442346978491658,2.496546109714736
-0.0379917754695443,2.442010727624002,2.495874418045342
-0.0379838954695443,2.442346978491658,2.495538572210645
-0.03797601546954431,2.442010727624002,2.495202726375948
-0.03796813546954431,2.442010727624002,2.494866880541251
-0.0379602554695443,2.442010727624002,2.494195188871857
-0.0379523754695443,2.442346978491658,2.494195188871857
-0.0379444954695443,2.442010727624002,2.49385934303716
-0.0379366154695443,2.442010727624002,2.493187651367766
-0.0379287354695443,2.442010727624002,2.493187651367766
-0.0379208554695443,2.442346978491658,2.492851805533069
-0.03791297546954431,2.442010727624002,2.492515959698372
-0.03790509546954431,2.442346978491658,2.492180113863675
-0.0378972154695443,2.442346978491658,2.49150842219428
-0.0378893354695443,2.442683229359313,2.491172576359584
-0.0378814554695443,2.442346978491658,2.491172576359583
-0.0378735754695443,2.442346978491658,2.490500884690189
-0.0378656954695443,2.442010727624002,2.490165038855492
-0.0378578154695443,2.441674476756347,2.490165038855492
-0.03784993546954431,2.442346978491657,2.489493347186099
-0.03784205546954431,2.441674476756347,2.489493347186098
-0.0378341754695443,2.442346978491658,2.488485809682007
-0.0378262954695443,2.442010727624002,2.48814996384731
-0.0378184154695443,2.442010727624002,2.48814996384731
-0.0378105354695443,2.442010727624002,2.487814118012613
-0.0378026554695443,2.442346978491658,2.487142426343219
-0.0377947754695443,2.442346978491658,2.487142426343219
-0.03778689546954431,2.442010727624002,2.486806580508522
-0.03777901546954431,2.442010727624002,2.486470734673825
-0.0377711354695443,2.442346978491658,2.486134888839128
-0.0377632554695443,2.441674476756347,2.485463197169734
-0.0377553754695443,2.442346978491658,2.485127351335036
-0.03774749546954431,2.442010727624002,2.484455659665643
